<?xml version="1.0" encoding="UTF-8" standalone="no"?>
<svg
   xmlns:dc="http://purl.org/dc/elements/1.1/"
   xmlns:cc="http://creativecommons.org/ns#"
   xmlns:rdf="http://www.w3.org/1999/02/22-rdf-syntax-ns#"
   xmlns:svg="http://www.w3.org/2000/svg"
   xmlns="http://www.w3.org/2000/svg"
   xmlns:sodipodi="http://sodipodi.sourceforge.net/DTD/sodipodi-0.dtd"
   xmlns:inkscape="http://www.inkscape.org/namespaces/inkscape"
   width="195.11156mm"
   height="170.46262mm"
   viewBox="0 0 195.11156 170.46262"
   version="1.1"
   id="svg1701"
   inkscape:version="1.0.1 (3bc2e813f5, 2020-09-07)"
   sodipodi:docname="wwg_white_green.svg">
  <defs
     id="defs1695">
    <clipPath
       clipPathUnits="userSpaceOnUse"
       id="clipPath867">
      <path
         d="M 0,0 H 595.276 V 419.528 H 0 Z"
         id="path865" />
    </clipPath>
    <clipPath
       clipPathUnits="userSpaceOnUse"
       id="clipPath923">
      <path
         d="M 0,0 H 595.276 V 419.528 H 0 Z"
         id="path921" />
    </clipPath>
    <clipPath
       clipPathUnits="userSpaceOnUse"
       id="clipPath2462">
      <rect
         style="fill:#282828;stroke:#000000;stroke-width:0.533517"
         id="rect2464"
         width="421.06897"
         height="372.43604"
         x="26.477848"
         y="-396.59924"
         transform="scale(1,-1)" />
    </clipPath>
    <clipPath
       clipPathUnits="userSpaceOnUse"
       id="clipPath2466">
      <rect
         style="fill:#282828;stroke:#000000;stroke-width:0.533517"
         id="rect2468"
         width="421.06897"
         height="372.43604"
         x="-113.83504"
         y="-214.42952"
         transform="scale(1,-1)" />
    </clipPath>
    <clipPath
       clipPathUnits="userSpaceOnUse"
       id="clipPath2470">
      <rect
         style="fill:#282828;stroke:#000000;stroke-width:0.533517"
         id="rect2472"
         width="421.06897"
         height="372.43604"
         x="-113.83505"
         y="-270.6795"
         transform="scale(1,-1)" />
    </clipPath>
    <clipPath
       clipPathUnits="userSpaceOnUse"
       id="clipPath2474">
      <rect
         style="fill:#282828;stroke:#000000;stroke-width:0.533517"
         id="rect2476"
         width="421.06897"
         height="372.43604"
         x="-89.04995"
         y="-70.868019"
         transform="scale(1,-1)" />
    </clipPath>
    <clipPath
       clipPathUnits="userSpaceOnUse"
       id="clipPath2478">
      <rect
         style="fill:#282828;stroke:#000000;stroke-width:0.533517"
         id="rect2480"
         width="421.06897"
         height="372.43604"
         x="26.477848"
         y="-396.59924"
         transform="scale(1,-1)" />
    </clipPath>
    <clipPath
       clipPathUnits="userSpaceOnUse"
       id="clipPath2484">
      <rect
         style="fill:#282828;stroke:#000000;stroke-width:0.533517"
         id="rect2486"
         width="412.74512"
         height="364.5549"
         x="30.137941"
         y="-391.056"
         transform="scale(1,-1)" />
    </clipPath>
    <clipPath
       clipPathUnits="userSpaceOnUse"
       id="clipPath2488">
      <rect
         style="fill:#282828;stroke:#000000;stroke-width:0.533517"
         id="rect2490"
         width="412.74512"
         height="364.5549"
         x="-110.17496"
         y="-208.88631"
         transform="scale(1,-1)" />
    </clipPath>
    <clipPath
       clipPathUnits="userSpaceOnUse"
       id="clipPath2492">
      <rect
         style="fill:#282828;stroke:#000000;stroke-width:0.533517"
         id="rect2494"
         width="412.74512"
         height="364.5549"
         x="-110.17496"
         y="-265.13629"
         transform="scale(1,-1)" />
    </clipPath>
    <clipPath
       clipPathUnits="userSpaceOnUse"
       id="clipPath2496">
      <rect
         style="fill:#282828;stroke:#000000;stroke-width:0.533517"
         id="rect2498"
         width="412.74512"
         height="364.5549"
         x="-85.389862"
         y="-65.324791"
         transform="scale(1,-1)" />
    </clipPath>
    <clipPath
       clipPathUnits="userSpaceOnUse"
       id="clipPath2500">
      <rect
         style="fill:#282828;stroke:#000000;stroke-width:0.533517"
         id="rect2502"
         width="412.74512"
         height="364.5549"
         x="30.137941"
         y="-391.056"
         transform="scale(1,-1)" />
    </clipPath>
  </defs>
  <sodipodi:namedview
     id="base"
     pagecolor="#ffffff"
     bordercolor="#666666"
     borderopacity="1.0"
     inkscape:pageopacity="0.0"
     inkscape:pageshadow="2"
     inkscape:zoom="1.0508004"
     inkscape:cx="481.92811"
     inkscape:cy="352.76635"
     inkscape:document-units="mm"
     inkscape:current-layer="klecks_big"
     inkscape:document-rotation="0"
     showgrid="false"
     inkscape:window-width="1904"
     inkscape:window-height="1124"
     inkscape:window-x="45"
     inkscape:window-y="29"
     inkscape:window-maximized="0" />
  <metadata
     id="metadata1698">
    <rdf:RDF>
      <cc:Work
         rdf:about="">
        <dc:format>image/svg+xml</dc:format>
        <dc:type
           rdf:resource="http://purl.org/dc/dcmitype/StillImage" />
        <dc:title></dc:title>
      </cc:Work>
    </rdf:RDF>
  </metadata>
  <g
     inkscape:label="Ebene 1"
     inkscape:groupmode="layer"
     id="layer1"
     transform="translate(-7.7765868,-38.665855)">
    <g
       id="klecks"
       transform="matrix(0.4909629,0,0,-0.4909629,-11.434792,226.80328)"
       clip-path="url(#clipPath2500)">
      <g
         id="klecks_big"
         transform="translate(116.2984,341.2634)"
         inkscape:label="klecks_big">
        <desc
           id="desc1023">klecks_big</desc>
        <title
           id="title1021">klecks_big</title>
        <path
           d="m 0,0 c 0.163,-0.573 0.328,-1.123 0.493,-1.645 2.159,-6.81 5.149,-9.135 7.142,-8.637 1.993,0.498 6.039,6.98 6.976,9.467 0.864,2.292 0.997,6.094 0.997,6.094 0,0 0.747,-1.498 1.328,-5.728 0.598,-4.353 0,-9.335 3.987,-10.331 3.986,-0.997 22.92,24.083 29.232,27.903 6.311,3.82 7.474,-2.325 6.81,-4.152 C 56.3,11.144 38.528,-7.957 37.034,-11.943 c -1.495,-3.986 -3.488,-8.305 -0.831,-9.135 2.658,-0.831 17.705,12.457 19.433,10.298 1.728,-2.159 -0.83,-7.188 -3.82,-10.57 -2.99,-3.382 -6.81,-3.88 -6.478,-7.867 0.332,-3.986 4.153,-8.138 8.969,-7.972 4.817,0.166 11.793,0.664 14.118,1.163 2.325,0.498 10.132,2.491 17.274,5.481 7.142,2.989 11.46,2.657 12.457,0.996 0.996,-1.661 3.225,-3.747 0.201,-5.813 -3.025,-2.066 -5.35,1.827 -7.675,1.827 -2.326,0 -23.586,-2.159 -30.562,-5.481 -6.975,-3.322 -11.626,-5.149 -10.629,-7.474 0.996,-2.326 0.83,-4.319 6.809,-5.315 5.98,-0.997 27.073,0 31.06,-1.827 3.986,-1.827 3.488,-3.82 1.162,-5.481 -2.325,-1.661 -29.066,1.495 -34.713,-0.997 -5.647,-2.491 -6.976,-4.983 -6.145,-7.308 0.83,-2.325 6.809,-7.972 8.47,-8.803 1.661,-0.83 3.322,-1.451 0.665,-0.83 -2.658,0.621 -13.288,3.476 -15.447,1.495 -2.159,-1.982 -0.498,-9.302 0.332,-10.63 0.831,-1.329 26.077,-44.347 25.08,-47.337 -0.996,-2.989 -4.318,-3.321 -5.149,-2.491 -0.83,0.83 -9.633,14.45 -12.789,15.28 -3.156,0.831 -5.647,-0.83 -7.64,0.499 -1.993,1.329 -12.822,19.2 -14.45,22.422 -0.977,1.933 -5.016,3.688 -5.016,3.688 0,0 -2.79,1.129 -5.448,2.125 -2.657,0.997 -4.318,1.495 -6.478,0 -1.554,-1.076 -6.983,-11.795 -10.026,-18.21"
           style="fill:#8abf4e;fill-opacity:1;fill-rule:nonzero;stroke:none"
           id="path871" />
      </g>
      <g
         id="kleck_nn"
         transform="translate(133.3677,383.2009)"
         inkscape:label="kleck_nn">
        <desc
           id="desc1019">kleck_nn</desc>
        <title
           id="title1017">kleck_nn</title>
        <path
           d="m 0,0 c -2.942,-0.997 -6.112,-3.222 -5.448,-6.544 0.665,-3.322 2.99,-5.813 7.308,-5.481 4.319,0.332 5.315,3.458 4.983,5.632 C 6.511,-4.219 5.989,-1.615 4.019,-0.731 2.392,0 0,0 0,0"
           style="fill:#8abf4e;fill-opacity:1;fill-rule:nonzero;stroke:none"
           id="path875" />
      </g>
      <g
         id="kleck_ne"
         transform="translate(181.2355,338.9539)"
         inkscape:label="kleck_ne">
        <desc
           id="desc1015">kleck_ne</desc>
        <title
           id="title1013">kleck_ne</title>
        <path
           d="M 0,0 C -0.664,0 -3.156,-0.665 -2.824,-2.657 -2.491,-4.651 1.495,-4.983 1.495,-4.983 2.99,-3.986 3.82,-1.661 2.99,-0.831 2.159,0 0,0 0,0"
           style="fill:#8abf4e;fill-opacity:1;fill-rule:nonzero;stroke:none"
           id="path879" />
      </g>
      <g
         id="kleck_n"
         transform="translate(139.1757,361.6438)"
         inkscape:label="kleck_n">
        <desc
           id="desc1011">kleck_n</desc>
        <title
           id="title1009">kleck_n</title>
        <path
           d="m 0,0 c -1.094,2.872 -2.622,3.342 -4.209,2.669 -1.586,-0.673 -2.848,-1.918 -3.212,-3.412 -0.364,-1.493 -1.037,-2.708 0.208,-3.969 1.246,-1.262 3.01,-1.169 4.558,0.239 C -1.107,-3.065 0.262,-0.688 0,0"
           style="fill:#8abf4e;fill-opacity:1;fill-rule:nonzero;stroke:none"
           id="path883" />
      </g>
      <g
         id="kleck_se"
         transform="translate(176.5849,262.7173)"
         inkscape:label="kleck_se">
        <desc
           id="desc1007">kleck_se</desc>
        <title
           id="title1005">kleck_se</title>
        <path
           d="m 0,0 c 0,0 11.46,-11.46 21.426,-12.457 9.965,-0.996 12.291,0.332 14.45,-2.325 2.159,-2.658 3.156,-9.966 -0.83,-11.959 -3.987,-1.993 -7.475,-2.823 -10.63,0.997 C 21.26,-21.924 0,0 0,0"
           style="fill:#8abf4e;fill-opacity:1;fill-rule:nonzero;stroke:none"
           id="path887" />
      </g>
      <g
         id="kleck_s"
         transform="translate(129.2486,236.9729)"
         inkscape:label="kleck_s">
        <desc
           id="desc1003">kleck_s</desc>
        <title
           id="title1001">kleck_s</title>
        <path
           d="m 0,0 c -2.491,-1.827 -6.123,-1.827 -4.39,-5.149 1.733,-3.322 1.329,-6.643 6.43,-5.813 5.102,0.83 6.597,2.55 5.932,5.417 C 7.308,-2.679 5.005,0 3.322,0 Z"
           style="fill:#8abf4e;fill-opacity:1;fill-rule:nonzero;stroke:none"
           id="path891" />
      </g>
    </g>
    <g
       id="g905"
       transform="matrix(0.4909629,0,0,-0.4909629,45.285072,66.881335)"
       inkscape:label="atom"
       clip-path="url(#clipPath2496)">
      <desc
         id="desc987">atom</desc>
      <title
         id="title985">atom</title>
      <g
         id="atom_sw"
         inkscape:label="atom_sw">
        <desc
           id="desc983">atom_sw</desc>
        <title
           id="title981">atom_sw</title>
        <g
           id="atom_sn"
           transform="translate(0.88949791,40.0325)"
           inkscape:label="atom_sn">
          <desc
             id="desc999">atom_sn</desc>
          <title
             id="title997">atom_sn</title>
          <path
             d="m 0,0 c -14.041,0 -25.423,-34.183 -25.423,-76.35 0,-42.167 11.382,-76.35 25.423,-76.35"
             style="fill:none;stroke:#ffffff;stroke-width:1.875;stroke-linecap:butt;stroke-linejoin:miter;stroke-miterlimit:4;stroke-dasharray:none;stroke-opacity:1"
             id="path895" />
        </g>
        <g
           id="atom_nw"
           transform="translate(-0.38130212,-0.17159686)"
           inkscape:label="atom_nw">
          <desc
             id="desc995">atom_nw</desc>
          <title
             id="title993">atom_nw</title>
          <path
             d="m 0,0 c -23.349,18.375 -44.915,26.659 -52.717,18.858 -9.928,-9.929 6.194,-42.148 36.011,-71.965 5.475,-5.475 11.031,-10.488 16.515,-14.963"
             style="fill:none;stroke:#ffffff;stroke-width:1.875;stroke-linecap:butt;stroke-linejoin:miter;stroke-miterlimit:4;stroke-dasharray:none;stroke-opacity:1"
             id="path899" />
        </g>
        <g
           id="atom_w"
           transform="translate(0.88970041,-10.894902)"
           inkscape:label="atom_w">
          <desc
             id="desc991">atom_w</desc>
          <title
             id="title989">atom_w</title>
          <path
             d="m 0,0 c -42.167,0 -76.35,-11.382 -76.35,-25.423 0,-14.041 34.183,-25.423 76.35,-25.423"
             style="fill:none;stroke:#ffffff;stroke-width:1.875;stroke-linecap:butt;stroke-linejoin:miter;stroke-miterlimit:4;stroke-dasharray:none;stroke-opacity:1"
             id="path903" />
        </g>
        <path
           d="m 0,0 c -5.67,-4.592 -11.422,-9.763 -17.087,-15.428 -29.817,-29.817 -45.939,-62.037 -36.011,-71.965 7.743,-7.743 29.046,0.36 52.193,18.447"
           style="fill:none;fill-opacity:1;stroke:#ffffff;stroke-width:1.875;stroke-linecap:butt;stroke-linejoin:miter;stroke-miterlimit:4;stroke-dasharray:none;stroke-opacity:1"
           id="path907" />
      </g>
    </g>
    <g
       id="wenders"
       transform="matrix(0.4909629,0,0,-0.4909629,57.453636,164.98137)"
       inkscape:label="wenders"
       clip-path="url(#clipPath2492)">
      <desc
         id="desc1053">wenders</desc>
      <title
         id="title1051">wenders</title>
      <path
         d="M 0,0 -5.771,-21.931 -10.996,0 h -9.963 l 9.781,-37.3 h 8.93 l 5.832,21.87 5.771,-21.87 h 8.931 L 28.127,0 H 18.286 L 13.122,-21.931 7.411,0 Z m 36.146,0 v -37.3 h 26.669 v 8.444 H 45.744 v 6.439 h 15.613 v 8.202 H 45.744 v 5.832 H 62.815 V 0 Z m 69.315,0 H 96.045 V -20.533 L 81.647,0 h -9.112 v -37.3 h 9.416 v 21.809 L 97.564,-37.3 h 7.897 z m 20.047,-28.856 v 20.473 h 4.01 c 6.196,0 9.659,-3.949 9.659,-10.267 0,-6.258 -3.463,-10.206 -9.659,-10.206 z M 115.91,-37.3 h 14.094 c 11.724,0 18.832,7.29 18.832,18.65 0,11.36 -7.108,18.65 -18.832,18.65 H 115.91 Z M 157.766,0 v -37.3 h 26.669 v 8.444 h -17.071 v 6.439 h 15.613 v 8.202 h -15.613 v 5.832 h 17.071 V 0 Z m 49.45,-24.968 7.776,-12.332 h 10.814 l -8.748,13.364 c 4.556,1.702 7.411,5.59 7.411,11.239 0,8.141 -5.528,12.697 -13.547,12.697 h -16.767 v -37.3 h 9.659 v 12.332 z m -3.402,16.767 h 6.075 c 3.463,0 5.042,-1.762 5.042,-4.496 0,-2.733 -1.579,-4.495 -5.042,-4.495 h -6.075 z m 29.402,-26.669 c 2.734,-1.641 7.229,-3.038 12.211,-3.038 8.383,0 15.248,3.584 15.248,11.664 0,5.711 -3.098,9.295 -9.902,11.421 l -5.65,1.701 c -1.944,0.608 -3.098,1.276 -3.098,2.977 0,1.883 2.126,2.673 4.921,2.673 4.252,0 7.958,-1.397 11.299,-3.706 v 8.991 c -3.098,1.701 -6.682,2.794 -11.725,2.794 -7.836,0 -14.094,-4.07 -14.094,-11.481 0,-6.197 3.463,-9.295 9.72,-11.118 l 5.65,-1.64 c 2.005,-0.729 3.159,-1.336 3.159,-3.159 0,-2.308 -2.673,-2.977 -5.771,-2.977 -4.192,0 -8.748,1.702 -11.968,3.888 z"
         style="fill:#ffffff;fill-opacity:1;fill-rule:nonzero;stroke:none"
         id="path911" />
    </g>
    <g
       id="wim"
       transform="matrix(0.4909629,0,0,-0.4909629,57.453634,137.36471)"
       inkscape:label="wim"
       clip-path="url(#clipPath2488)">
      <desc
         id="desc1049">wim</desc>
      <title
         id="title1047">wim</title>
      <path
         d="M 0,0 -5.771,-21.931 -10.996,0 h -9.963 l 9.781,-37.3 h 8.93 l 5.832,21.87 5.771,-21.87 h 8.931 L 28.127,0 H 18.286 L 13.122,-21.931 7.411,0 Z m 45.927,0 h -9.781 v -37.3 h 9.781 z m 29.827,-29.281 9.538,13.364 V -37.3 H 94.89 V 0 H 85.899 L 75.633,-15.188 65.427,0 h -9.052 v -37.3 h 9.538 v 21.383 l 9.598,-13.364 z"
         style="fill:#ffffff;fill-opacity:1;fill-rule:nonzero;stroke:none"
         id="path915" />
    </g>
    <g
       id="gymnasium"
       inkscape:label="gymnasium"
       transform="matrix(0.4909629,0,0,-0.4909629,-11.434792,226.80328)"
       clip-path="url(#clipPath2484)">
      <desc
         id="desc1045">gymnasium</desc>
      <title
         id="title1043">gymnasium</title>
      <g
         id="g919"
         clip-path="url(#clipPath923)">
        <g
           id="g925"
           transform="translate(136.7159,39.8063)">
          <path
             d="m 0,0 c -6.96,0 -11.419,5.329 -11.419,13.376 0,8.048 4.84,13.322 11.8,13.322 3.643,0 6.796,-1.142 9.624,-3.697 v 4.567 c -2.338,1.849 -5.709,2.991 -9.624,2.991 -9.19,0 -16.095,-6.797 -16.095,-17.183 0,-10.331 6.307,-17.182 15.605,-17.182 4.133,0 8.537,1.25 11.745,4.785 v 13.05 H 0.326 V 10.44 H 7.667 V 2.556 C 5.492,0.761 3.045,0 0,0 M 34.364,14.301 24.74,30.069 H 20.064 L 32.135,10.44 V -3.317 h 4.241 V 10.44 l 12.18,19.629 H 43.989 Z M 74.71,4.132 86.02,22.348 V -3.317 h 4.187 V 30.069 H 86.455 L 74.656,10.875 62.802,30.069 H 58.833 V -3.317 h 4.186 V 22.348 L 74.493,4.132 Z m 54.81,25.937 h -4.078 V 4.676 l -17.781,25.393 h -4.078 V -3.317 h 4.132 v 26.535 l 18.651,-26.535 h 3.154 z m 23.598,0 -13.05,-33.386 h 4.35 l 3.806,10.059 h 13.757 l 3.86,-10.059 h 4.35 l -13.05,33.386 z m 1.957,-5.328 5.438,-14.247 H 149.638 Z M 179,-0.707 c 2.284,-1.794 5.981,-3.099 10.494,-3.099 6.471,0 11.256,3.425 11.256,9.135 0,4.622 -2.284,7.286 -7.395,9.243 l -5.275,2.067 c -3.099,1.196 -5.002,2.392 -5.002,5.22 0,3.317 2.882,4.948 6.579,4.948 3.861,0 6.852,-1.36 9.516,-3.48 v 4.513 c -2.501,1.74 -5.927,2.719 -9.57,2.719 -5.764,0 -10.712,-2.991 -10.712,-8.755 0,-5.274 3.589,-7.503 7.504,-9.026 l 4.894,-1.903 c 3.534,-1.468 5.328,-2.664 5.328,-5.601 C 196.617,1.849 193.79,0 189.494,0 185.579,0 182.099,1.251 179,3.915 Z m 37.627,30.776 h -4.296 V -3.317 h 4.296 z m 25.882,-33.875 c 7.612,0 13.104,4.567 13.104,13.702 v 20.173 h -4.296 V 10.44 C 251.317,3.317 247.892,0 242.509,0 237.125,0 233.7,3.317 233.7,10.44 v 19.629 h -4.241 V 9.951 c 0,-9.19 5.491,-13.757 13.05,-13.757 m 41.814,7.938 11.31,18.216 V -3.317 h 4.187 v 33.386 h -3.752 l -11.8,-19.194 -11.853,19.194 h -3.97 V -3.317 h 4.187 V 22.348 L 284.105,4.132 Z"
             style="fill:#ffffff;fill-opacity:1;fill-rule:nonzero;stroke:none"
             id="path927" />
        </g>
      </g>
    </g>
  </g>
</svg>
